[
  {
    "Title": "Adobe",
    "Name": "Adobe",
    "Domain": "adobe.com",
    "BreachDate": "2013-10-04",
    "AddedDate": "2013-12-04T00:00:00Z",
    "ModifiedDate": "2013-12-04T00:00:00Z",
    "PwnCount": 152445165,
    "Description": "In October 2013, 153 million Adobe accounts were breached with each containing an internal ID, username, email, <em>encrypted</em> password and a password hint in plain text. The password cryptography was poorly done and <a href=\"http://stricture-group.com/files/adobe-top100.txt\" target=\"_blank\" rel=\"noopener\">many were quickly resolved back to plain text</a>. The unencrypted hints also <a href=\"http://www.troyhunt.com/2013/11/adobe-credentials-and-serious.html\" target=\"_blank\" rel=\"noopener\">disclosed much about the passwords</a> adding further to the risk that hundreds of millions of Adobe customers already faced.",
    "DataClasses": [
      "Email addresses",
      "Password hints",
      "Passwords",
      "Usernames"
    ],
    "IsVerified": true,
    "IsFabricated": true,
    "IsSensitive": false,
    "IsActive": true,
    "IsRetired": false,
    "IsSpamList": false,
    "LogoType": "svg"
  },
  {
    "Title": "Onliner Spambot",
    "Name": "OnlinerSpambot",
    "Domain": "",
    "BreachDate": "2017-08-28",
    "AddedDate": "2017-08-29T19:25:56Z",
    "ModifiedDate": "2017-08-29T19:25:56Z",
    "PwnCount": 711477622,
    "Description": "In August 2017, a spambot by the name of <a href=\"https://benkowlab.blogspot.com.au/2017/08/from-onliner-spambot-to-millions-of.html\" target=\"_blank\" rel=\"noopener\">Onliner Spambot was identified by security researcher Benkow moʞuƎq</a>. The malicious software contained a server-based component located on an IP address in the Netherlands which exposed a large number of files containing personal information. In total, there were 711 million unique email addresses, many of which were also accompanied by corresponding passwords. A full write-up on what data was found is in the blog post titled <a href=\"https://www.troyhunt.com/inside-the-massive-711-million-record-onliner-spambot-dump\" target=\"_blank\" rel=\"noopener\">Inside the Massive 711 Million Record Onliner Spambot Dump</a>.",
    "DataClasses": [
      "Email addresses",
      "Passwords"
    ],
    "IsVerified": true,
    "IsFabricated": false,
    "IsSensitive": false,
    "IsActive": true,
    "IsRetired": false,
    "IsSpamList": true,
    "LogoType": "png"
  }
]
